kV
1.788854382 

kP
0.8 

Mu_t
0.0 11.7912504541 23.5825009081 35.3737513622 47.1650018162 58.9562522703 70.7475027243 82.5387531784 94.3300036324 106.121254086 

Sigma_t
10.6121254086 

10.6121254086 

10.6121254086 

10.6121254086 

10.6121254086 

10.6121254086 

10.6121254086 

10.6121254086 

10.6121254086 

10.6121254086 

mu_x
0.0197864001732 -0.245465871504 -0.284144691329 -0.288953152787 -0.249646666143 -0.0489469047902 -0.0244536678645 0.0519867057002 0.0372940529926 0.00853080341293 
-0.62234645623 -0.615838793979 -0.496330356831 -0.337966254889 -0.185146034968 -0.151700648363 -0.156280871057 -0.149512513997 -0.103585232163 -0.0765194013194 
-0.259695915141 -0.549754605749 -0.278178903642 -0.0973109848754 -0.0859864888307 -0.0257335598213 -0.0246934109591 -0.0244141033156 -0.0101354686848 -0.0177352422981 

Wp
0.8 -1.03848462795e-16 -2.86868883411e-17 
1.40359182712e-16 0.8 -3.82858892159e-17 
4.7396999113e-17 -1.9800242175e-16 0.8 

0.8 1.79986877995e-16 -6.67868538251e-17 
-5.34815755863e-16 0.8 7.50064615453e-17 
8.2318049946e-17 -4.57262266246e-17 0.8 

0.8 3.82245640305e-16 -8.32396217926e-17 
1.04559441075e-16 0.8 1.0116961522e-17 
1.19790787532e-16 1.57598950166e-16 0.8 

0.8 1.35267773545e-16 -1.54105786292e-16 
6.06340064963e-17 0.8 -4.50214952125e-16 
2.71931457387e-17 5.04967161835e-17 0.8 

0.8 8.52453958117e-17 -1.32660606133e-16 
2.62105875198e-17 0.8 -4.27040130688e-17 
1.96381200689e-16 -1.89057753827e-17 0.8 

0.8 -1.42118602492e-16 2.54423286367e-17 
-7.3514790203e-17 0.8 7.59542914132e-17 
-4.19069550654e-17 1.18773500963e-16 0.8 

0.8 -2.52296386636e-16 -1.36663683842e-16 
-8.32099756394e-17 0.8 -4.92600480805e-17 
1.70490791623e-16 -2.28759882131e-16 0.8 

0.8 -5.26839246599e-16 1.44375071794e-16 
4.70230340668e-16 0.8 7.44711367226e-17 
1.10824435566e-15 8.96499671374e-17 0.8 

0.8 -1.15193092695e-16 1.60470603616e-16 
8.27720596057e-18 0.8 -1.6910165759e-16 
-1.70022170645e-16 -1.94539751062e-16 0.8 

0.8 1.29345319178e-16 5.0022377733e-17 
-1.03785252961e-16 0.8 -3.33121117496e-17 
1.36230002973e-16 1.45879402308e-16 0.8 

Dofs
0 0 0 0 1 1 0 0 0 1 

ParamValue
1

