kV
1.48323969742 

kP
0.55 

Mu_t
0.0 59.9 119.8 

Sigma_t
39.9333333333 

39.9333333333 

39.9333333333 

mu_x
1.04927311675 0.977257343015 1.01707461383 

Wp
0.1 

0.789540025289 

1.0 

Dofs
1 

ParamValue
0

